Linear and Hierarchical Linear Models
…
Scenario: You measured plant height across 6 sites, with different treatments at each site.

Questions:

What could be a fixed effect?

What could be a random effect?

What would happen if you ignored site?

Dragon data

We went to the field and sampled more mountains with dragons.

# A tibble: 24 × 3
# Groups:   mountainRange [8]
   mountainRange site  samples
   <fct>         <fct>   <int>
 1 Bavarian      a          20
 2 Bavarian      b          20
 3 Bavarian      c          20
 4 Central       a          20
 5 Central       b          20
 6 Central       c          20
 7 Emmental      a          20
 8 Emmental      b          20
 9 Emmental      c          20
10 Julian        a          20
# ℹ 14 more rows
…
